{
    "customers":
    [
        {
            "compId": "1",
            "compName": "Techville",
            "compAddr": "574 Kerr Street, Oakville, ON L6K 3C7",
            "compContact": "Bob",
            "compPhone": "(905) 849-8702",
            "compEmail": "help@techville.ca",
            "invoices":
            [
                "I001",
                "I003",
                "I004"
            ]
        },
        {
            "compId": "2",
            "compName": "The Electronic Repair Clinic",
            "compAddr": "2525 Old Bronte Road Suite #150, Oakville, ON L6M 4J2",
            "compContact": "Kiera",
            "compPhone": "(905) 827-7080",
            "compEmail": "support@electronicrepairclinic.ca",
            "invoices":
            [
                "I002",
                "I005",
                "I008"
            ]
        },
        {
            "compId": "3",
            "compName": "Dorval Electronics",
            "compAddr": "220 North Service Road W, Oakville, ON L6M 2Y3",
            "compContact": "Steve",
            "compPhone": "(905) 815-8298",
            "compEmail": "customer@dorvalelectronics.ca",
            "invoices":
            [
                "I007",
                "I010",
                "I012"
            ]
        },
        {
            "compId": "4",
            "compName": "Micron Electronics Inc",
            "compAddr": "2679 Bristol Circle #6, Oakville, ON L6H 6Z8",
            "compContact": "Ted",
            "compPhone": "(905) 828-1662",
            "compEmail": "ask@micron.ca",
            "invoices":
            [
                "I006",
                "I009",
                "I013"
            ]
        },
        {
            "compId": "5",
            "compName": "2001 Audio Video",
            "compAddr": "2431 Trafalgar Road, Oakville, ON L6H 6K7",
            "compContact": "Paul",
            "compPhone": "(905) 257-5701",
            "compEmail": "help@2001audiovideo.ca",
            "invoices":
            [
                "I011",
                "I014",
                "I016"
            ]
        },        
        {
            "compId": "6",
            "compName": "Sayal Electronics",
            "compAddr": "4380 Harvester Road, Burlington, ON L7L 4X2",
            "compContact": "Sayal",
            "compPhone": "(905) 333-3319",
            "compEmail": "ask@sayalelectronics.ca",
            "invoices":
            [
                "I015",
                "I020",
                "I017"
            ]
        },
        {
            "compId": "7",
            "compName": "Oakville Tech",
            "compAddr": "610 Ford Drive Unit 5, Oakville, ON L6J 7V7",
            "compContact": "Katie",
            "compPhone": "(905) 849-4022",
            "compEmail": "support@oakvilletech.ca",
            "invoices":
            [
                "I039",
                "I018",
                "I021"
            ]
        },
        {
            "compId": "8",
            "compName": "The Computer Edge",
            "compAddr": "2387 Trafalgar Road B7, Oakville, ON L6H 6K7",
            "compContact": "Todd",
            "compPhone": "(905) 257-0082",
            "compEmail": "help@computeredge.ca",
            "invoices":
            [
                "I019",
                "I022",
                "I030"
            ]
        },
        {
            "compId": "9",
            "compName": "Express Computer Repair Center",
            "compAddr": "584 Kerr Street, ON L6K 3C7",
            "compContact": "Kaitlyn",
            "compPhone": "(905) 849-4343",
            "compEmail": "customers@expresscpr.ca",
            "invoices":
            [
                "I023",
                "I029",
                "I025"
            ]
        },
        {
            "compId": "10",
            "compName": "Ridgeway Computers & Electronics",
            "compAddr": "3065 Ridgeway Drive #151, Mississauga, ON L5L 5M6",
            "compContact": "Zach",
            "compPhone": "(905) 607-0096",
            "compEmail": "help@ridgewaycomputers.ca",
            "invoices":
            [
                "I024",
                "I026",
                "I028"
            ]
        }
    ]
}